{
  "Name": "BB_WorkspaceTest2",
  "Description": "BB_WorkspaceTest2 Description",
  "Country": "BB",
  "Visibility": "Private",
  "Lcid": 1036,
  "TimeZoneId": 2,
  "Owners": [
    {
      "Id": "053a7fe3-d59d-4fee-890c-92662b037d9a"
    }
  ]
}
