{
  "Country": "BB",
  "Description": "BB_ASTEK_TI",
  "IsSubscribedByMail": null,
  "MailNickName": "BBAstekTI",
  "Name": "BB_ASTEK_TI",
  "Owners": [
    {
      "Id": "053a7fe3-d59d-4fee-890c-92662b037d9a"
    }
  ],
  "SecurityEnabled": false,
  "Visibility": "Private"
}


{
  "Id": "grp_GUID"
  "Name": "New group name",
}
